%!PS-Adobe-3.0 EPSF-3.0
%%BoundingBox: 16 685 271 775
%%Title: grids2
%%CreationDate: Tue Apr 12 07:05:08 2005
%%Creator: Tgif-4.1.43-QPL written by William Chia-Wei Cheng (bill.cheng@acm.org)
%%ProducedBy: (unknown)
%%Pages: 1
%%DocumentFonts: (atend)
%%EndComments
%%BeginProlog

/tgifdict 51 dict def
tgifdict begin

/TGMAX
 { exch dup 3 1 roll exch dup 3 1 roll gt { pop } { exch pop } ifelse
 } def
/TGMIN
 { exch dup 3 1 roll exch dup 3 1 roll lt { pop } { exch pop } ifelse
 } def
/TGSW { stringwidth pop } def

/bd { bind def } bind def

/GS { gsave } bd
/GR { grestore } bd
/NP { newpath } bd
/CP { closepath } bd
/CHP { charpath } bd
/CT { curveto } bd
/L { lineto } bd
/RL { rlineto } bd
/M { moveto } bd
/RM { rmoveto } bd
/S { stroke } bd
/F { fill } bd
/TR { translate } bd
/RO { rotate } bd
/SC { scale } bd
/MU { mul } bd
/DI { div } bd
/DU { dup } bd
/NE { neg } bd
/AD { add } bd
/SU { sub } bd
/PO { pop } bd
/EX { exch } bd
/CO { concat } bd
/CL { clip } bd
/EC { eoclip } bd
/EF { eofill } bd
/IM { image } bd
/IMM { imagemask } bd
/ARY { array } bd
/SG { setgray } bd
/RG { setrgbcolor } bd
/SD { setdash } bd
/W { setlinewidth } bd
/SM { setmiterlimit } bd
/SLC { setlinecap } bd
/SLJ { setlinejoin } bd
/SH { show } bd
/FF { findfont } bd
/MS { makefont setfont } bd
/AR { arcto 4 {pop} repeat } bd
/CURP { currentpoint } bd
/FLAT { flattenpath strokepath clip newpath } bd
/TGSM { tgiforigctm setmatrix } def
/TGRM { savematrix setmatrix } def

end

%%EndProlog
%%Page: 1 1

%%PageBoundingBox: 16 685 271 775
tgifdict begin
/tgifsavedpage save def

1 SM
1 W

0 SG

72 0 MU 72 11 MU TR
72 128 DI 100.000 MU 100 DI DU NE SC

GS

/tgiforigctm matrix currentmatrix def

% BOX
GS
   64 32 TR
   [0.500 0.000 0.000 0.500 -32 0] CO
   64 NE 32 NE TR
0 SG
NP 64 32 M 320 32 L 320 288 L 64 288 L CP F
GS
   10 SM
   GS
      NP 64 32 M 320 32 L 320 288 L 64 288 L CP
      TGSM
      S
   GR
GR
GR

% POLY/OPEN-SPLINE
0 SG
GS
   80 32 TR
   [0.500 0.000 0.000 0.500 -40 0] CO
   80 NE 32 NE TR
GS
   NP
      80 32 M
      80 288 L
   TGSM
   0.500 W
   S
GR
GR

% POLY/OPEN-SPLINE
0 SG
GS
   96 32 TR
   [0.500 0.000 0.000 0.500 -48 0] CO
   96 NE 32 NE TR
GS
   NP
      96 32 M
      96 288 L
   TGSM
   0.500 W
   S
GR
GR

% POLY/OPEN-SPLINE
0 SG
GS
   112 32 TR
   [0.500 0.000 0.000 0.500 -56 0] CO
   112 NE 32 NE TR
GS
   NP
      112 32 M
      112 288 L
   TGSM
   0.500 W
   S
GR
GR

% POLY/OPEN-SPLINE
0 SG
GS
   128 32 TR
   [0.500 0.000 0.000 0.500 -64 0] CO
   128 NE 32 NE TR
GS
   NP
      128 32 M
      128 288 L
   TGSM
   0.500 W
   S
GR
GR

% POLY/OPEN-SPLINE
0 SG
GS
   144 32 TR
   [0.500 0.000 0.000 0.500 -72 0] CO
   144 NE 32 NE TR
GS
   NP
      144 32 M
      144 288 L
   TGSM
   0.500 W
   S
GR
GR

% POLY/OPEN-SPLINE
0 SG
GS
   160 32 TR
   [0.500 0.000 0.000 0.500 -80 0] CO
   160 NE 32 NE TR
GS
   NP
      160 32 M
      160 288 L
   TGSM
   0.500 W
   S
GR
GR

% POLY/OPEN-SPLINE
0 SG
GS
   176 32 TR
   [0.500 0.000 0.000 0.500 -88 0] CO
   176 NE 32 NE TR
GS
   NP
      176 32 M
      176 288 L
   TGSM
   0.500 W
   S
GR
GR

% POLY/OPEN-SPLINE
0 SG
GS
   192 32 TR
   [0.500 0.000 0.000 0.500 -96 0] CO
   192 NE 32 NE TR
GS
   NP
      192 32 M
      192 288 L
   TGSM
   0.500 W
   S
GR
GR

% POLY/OPEN-SPLINE
0 SG
GS
   208 32 TR
   [0.500 0.000 0.000 0.500 -104 0] CO
   208 NE 32 NE TR
GS
   NP
      208 32 M
      208 288 L
   TGSM
   0.500 W
   S
GR
GR

% POLY/OPEN-SPLINE
0 SG
GS
   224 32 TR
   [0.500 0.000 0.000 0.500 -112 0] CO
   224 NE 32 NE TR
GS
   NP
      224 32 M
      224 288 L
   TGSM
   0.500 W
   S
GR
GR

% POLY/OPEN-SPLINE
0 SG
GS
   240 32 TR
   [0.500 0.000 0.000 0.500 -120 0] CO
   240 NE 32 NE TR
GS
   NP
      240 32 M
      240 288 L
   TGSM
   0.500 W
   S
GR
GR

% POLY/OPEN-SPLINE
0 SG
GS
   256 32 TR
   [0.500 0.000 0.000 0.500 -128 0] CO
   256 NE 32 NE TR
GS
   NP
      256 32 M
      256 288 L
   TGSM
   0.500 W
   S
GR
GR

% POLY/OPEN-SPLINE
0 SG
GS
   272 32 TR
   [0.500 0.000 0.000 0.500 -136 0] CO
   272 NE 32 NE TR
GS
   NP
      272 32 M
      272 288 L
   TGSM
   0.500 W
   S
GR
GR

% POLY/OPEN-SPLINE
0 SG
GS
   288 32 TR
   [0.500 0.000 0.000 0.500 -144 0] CO
   288 NE 32 NE TR
GS
   NP
      288 32 M
      288 288 L
   TGSM
   0.500 W
   S
GR
GR

% POLY/OPEN-SPLINE
0 SG
GS
   304 32 TR
   [0.500 0.000 0.000 0.500 -152 0] CO
   304 NE 32 NE TR
GS
   NP
      304 32 M
      304 288 L
   TGSM
   0.500 W
   S
GR
GR

% POLY/OPEN-SPLINE
0 SG
GS
   347 -24 TR
   [0.000 0.500 -0.500 0.000 -187 64] CO
   347 NE -24 NE TR
GS
   NP
      347 -24 M
      347 232 L
   TGSM
   0.500 W
   S
GR
GR

% POLY/OPEN-SPLINE
0 SG
GS
   347 -16 TR
   [0.000 0.500 -0.500 0.000 -187 64] CO
   347 NE -16 NE TR
GS
   NP
      347 -16 M
      347 240 L
   TGSM
   0.500 W
   S
GR
GR

% POLY/OPEN-SPLINE
0 SG
GS
   347 -8 TR
   [0.000 0.500 -0.500 0.000 -187 64] CO
   347 NE -8 NE TR
GS
   NP
      347 -8 M
      347 248 L
   TGSM
   0.500 W
   S
GR
GR

% POLY/OPEN-SPLINE
0 SG
GS
   347 0 TR
   [0.000 0.500 -0.500 0.000 -187 64] CO
   347 NE 0 NE TR
GS
   NP
      347 0 M
      347 256 L
   TGSM
   0.500 W
   S
GR
GR

% POLY/OPEN-SPLINE
0 SG
GS
   347 8 TR
   [0.000 0.500 -0.500 0.000 -187 64] CO
   347 NE 8 NE TR
GS
   NP
      347 8 M
      347 264 L
   TGSM
   0.500 W
   S
GR
GR

% POLY/OPEN-SPLINE
0 SG
GS
   347 16 TR
   [0.000 0.500 -0.500 0.000 -187 64] CO
   347 NE 16 NE TR
GS
   NP
      347 16 M
      347 272 L
   TGSM
   0.500 W
   S
GR
GR

% POLY/OPEN-SPLINE
0 SG
GS
   347 24 TR
   [0.000 0.500 -0.500 0.000 -187 64] CO
   347 NE 24 NE TR
GS
   NP
      347 24 M
      347 280 L
   TGSM
   0.500 W
   S
GR
GR

% POLY/OPEN-SPLINE
0 SG
GS
   347 32 TR
   [0.000 0.500 -0.500 0.000 -187 64] CO
   347 NE 32 NE TR
GS
   NP
      347 32 M
      347 288 L
   TGSM
   0.500 W
   S
GR
GR

% POLY/OPEN-SPLINE
0 SG
GS
   347 40 TR
   [0.000 0.500 -0.500 0.000 -187 64] CO
   347 NE 40 NE TR
GS
   NP
      347 40 M
      347 296 L
   TGSM
   0.500 W
   S
GR
GR

% POLY/OPEN-SPLINE
0 SG
GS
   347 48 TR
   [0.000 0.500 -0.500 0.000 -187 64] CO
   347 NE 48 NE TR
GS
   NP
      347 48 M
      347 304 L
   TGSM
   0.500 W
   S
GR
GR

% POLY/OPEN-SPLINE
0 SG
GS
   347 56 TR
   [0.000 0.500 -0.500 0.000 -187 64] CO
   347 NE 56 NE TR
GS
   NP
      347 56 M
      347 312 L
   TGSM
   0.500 W
   S
GR
GR

% POLY/OPEN-SPLINE
0 SG
GS
   347 64 TR
   [0.000 0.500 -0.500 0.000 -187 64] CO
   347 NE 64 NE TR
GS
   NP
      347 64 M
      347 320 L
   TGSM
   0.500 W
   S
GR
GR

% POLY/OPEN-SPLINE
0 SG
GS
   347 72 TR
   [0.000 0.500 -0.500 0.000 -187 64] CO
   347 NE 72 NE TR
GS
   NP
      347 72 M
      347 328 L
   TGSM
   0.500 W
   S
GR
GR

% POLY/OPEN-SPLINE
0 SG
GS
   347 80 TR
   [0.000 0.500 -0.500 0.000 -187 64] CO
   347 NE 80 NE TR
GS
   NP
      347 80 M
      347 336 L
   TGSM
   0.500 W
   S
GR
GR

% POLY/OPEN-SPLINE
0 SG
GS
   347 88 TR
   [0.000 0.500 -0.500 0.000 -187 64] CO
   347 NE 88 NE TR
GS
   NP
      347 88 M
      347 344 L
   TGSM
   0.500 W
   S
GR
GR

% BOX
GS
   384 32 TR
   [0.500 0.000 0.000 0.500 -192 0] CO
   384 NE 32 NE TR
0 SG
NP 384 32 M 640 32 L 640 288 L 384 288 L CP F
GS
   10 SM
   GS
      NP 384 32 M 640 32 L 640 288 L 384 288 L CP
      TGSM
      S
   GR
GR
GR

% POLY/OPEN-SPLINE
0 SG
GS
   416 32 TR
   [0.500 0.000 0.000 0.500 -208 0] CO
   416 NE 32 NE TR
GS
   NP
      416 32 M
      416 288 L
   TGSM
   0.500 W
   S
GR
GR

% POLY/OPEN-SPLINE
0 SG
GS
   448 32 TR
   [0.500 0.000 0.000 0.500 -224 0] CO
   448 NE 32 NE TR
GS
   NP
      448 32 M
      448 288 L
   TGSM
   0.500 W
   S
GR
GR

% POLY/OPEN-SPLINE
0 SG
GS
   480 32 TR
   [0.500 0.000 0.000 0.500 -240 0] CO
   480 NE 32 NE TR
GS
   NP
      480 32 M
      480 288 L
   TGSM
   0.500 W
   S
GR
GR

% POLY/OPEN-SPLINE
0 SG
GS
   512 32 TR
   [0.500 0.000 0.000 0.500 -256 0] CO
   512 NE 32 NE TR
GS
   NP
      512 32 M
      512 288 L
   TGSM
   0.500 W
   S
GR
GR

% POLY/OPEN-SPLINE
0 SG
GS
   544 32 TR
   [0.500 0.000 0.000 0.500 -272 0] CO
   544 NE 32 NE TR
GS
   NP
      544 32 M
      544 288 L
   TGSM
   0.500 W
   S
GR
GR

% POLY/OPEN-SPLINE
0 SG
GS
   576 32 TR
   [0.500 0.000 0.000 0.500 -288 0] CO
   576 NE 32 NE TR
GS
   NP
      576 32 M
      576 288 L
   TGSM
   0.500 W
   S
GR
GR

% POLY/OPEN-SPLINE
0 SG
GS
   608 32 TR
   [0.500 0.000 0.000 0.500 -304 0] CO
   608 NE 32 NE TR
GS
   NP
      608 32 M
      608 288 L
   TGSM
   0.500 W
   S
GR
GR

% POLY/OPEN-SPLINE
0 SG
GS
   667 -24 TR
   [0.000 0.500 -0.500 0.000 -347 64] CO
   667 NE -24 NE TR
GS
   NP
      667 -24 M
      667 232 L
   TGSM
   0.500 W
   S
GR
GR

% POLY/OPEN-SPLINE
0 SG
GS
   667 -16 TR
   [0.000 0.500 -0.500 0.000 -347 64] CO
   667 NE -16 NE TR
GS
   NP
      667 -16 M
      667 240 L
   TGSM
   0.500 W
   S
GR
GR

% POLY/OPEN-SPLINE
0 SG
GS
   667 -8 TR
   [0.000 0.500 -0.500 0.000 -347 64] CO
   667 NE -8 NE TR
GS
   NP
      667 -8 M
      667 248 L
   TGSM
   0.500 W
   S
GR
GR

% POLY/OPEN-SPLINE
0 SG
GS
   667 0 TR
   [0.000 0.500 -0.500 0.000 -347 64] CO
   667 NE 0 NE TR
GS
   NP
      667 0 M
      667 256 L
   TGSM
   0.500 W
   S
GR
GR

% POLY/OPEN-SPLINE
0 SG
GS
   667 8 TR
   [0.000 0.500 -0.500 0.000 -347 64] CO
   667 NE 8 NE TR
GS
   NP
      667 8 M
      667 264 L
   TGSM
   0.500 W
   S
GR
GR

% POLY/OPEN-SPLINE
0 SG
GS
   667 16 TR
   [0.000 0.500 -0.500 0.000 -347 64] CO
   667 NE 16 NE TR
GS
   NP
      667 16 M
      667 272 L
   TGSM
   0.500 W
   S
GR
GR

% POLY/OPEN-SPLINE
0 SG
GS
   667 24 TR
   [0.000 0.500 -0.500 0.000 -347 64] CO
   667 NE 24 NE TR
GS
   NP
      667 24 M
      667 280 L
   TGSM
   0.500 W
   S
GR
GR

% POLY/OPEN-SPLINE
0 SG
GS
   667 32 TR
   [0.000 0.500 -0.500 0.000 -347 64] CO
   667 NE 32 NE TR
GS
   NP
      667 32 M
      667 288 L
   TGSM
   0.500 W
   S
GR
GR

% POLY/OPEN-SPLINE
0 SG
GS
   667 40 TR
   [0.000 0.500 -0.500 0.000 -347 64] CO
   667 NE 40 NE TR
GS
   NP
      667 40 M
      667 296 L
   TGSM
   0.500 W
   S
GR
GR

% POLY/OPEN-SPLINE
0 SG
GS
   667 48 TR
   [0.000 0.500 -0.500 0.000 -347 64] CO
   667 NE 48 NE TR
GS
   NP
      667 48 M
      667 304 L
   TGSM
   0.500 W
   S
GR
GR

% POLY/OPEN-SPLINE
0 SG
GS
   667 56 TR
   [0.000 0.500 -0.500 0.000 -347 64] CO
   667 NE 56 NE TR
GS
   NP
      667 56 M
      667 312 L
   TGSM
   0.500 W
   S
GR
GR

% POLY/OPEN-SPLINE
0 SG
GS
   667 64 TR
   [0.000 0.500 -0.500 0.000 -347 64] CO
   667 NE 64 NE TR
GS
   NP
      667 64 M
      667 320 L
   TGSM
   0.500 W
   S
GR
GR

% POLY/OPEN-SPLINE
0 SG
GS
   667 72 TR
   [0.000 0.500 -0.500 0.000 -347 64] CO
   667 NE 72 NE TR
GS
   NP
      667 72 M
      667 328 L
   TGSM
   0.500 W
   S
GR
GR

% POLY/OPEN-SPLINE
0 SG
GS
   667 80 TR
   [0.000 0.500 -0.500 0.000 -347 64] CO
   667 NE 80 NE TR
GS
   NP
      667 80 M
      667 336 L
   TGSM
   0.500 W
   S
GR
GR

% POLY/OPEN-SPLINE
0 SG
GS
   667 88 TR
   [0.000 0.500 -0.500 0.000 -347 64] CO
   667 NE 88 NE TR
GS
   NP
      667 88 M
      667 344 L
   TGSM
   0.500 W
   S
GR
GR

% BOX
GS
   704 32 TR
   [0.500 0.000 0.000 0.500 -352 0] CO
   704 NE 32 NE TR
0 SG
NP 704 32 M 960 32 L 960 288 L 704 288 L CP F
GS
   10 SM
   GS
      NP 704 32 M 960 32 L 960 288 L 704 288 L CP
      TGSM
      S
   GR
GR
GR

% POLY/OPEN-SPLINE
0 SG
GS
   720 32 TR
   [0.500 0.000 0.000 0.500 -360 0] CO
   720 NE 32 NE TR
GS
   NP
      720 32 M
      720 288 L
   TGSM
   0.500 W
   S
GR
GR

% POLY/OPEN-SPLINE
0 SG
GS
   736 32 TR
   [0.500 0.000 0.000 0.500 -368 0] CO
   736 NE 32 NE TR
GS
   NP
      736 32 M
      736 288 L
   TGSM
   0.500 W
   S
GR
GR

% POLY/OPEN-SPLINE
0 SG
GS
   768 32 TR
   [0.500 0.000 0.000 0.500 -384 0] CO
   768 NE 32 NE TR
GS
   NP
      768 32 M
      768 288 L
   TGSM
   0.500 W
   S
GR
GR

% POLY/OPEN-SPLINE
0 SG
GS
   800 32 TR
   [0.500 0.000 0.000 0.500 -400 0] CO
   800 NE 32 NE TR
GS
   NP
      800 32 M
      800 288 L
   TGSM
   0.500 W
   S
GR
GR

% POLY/OPEN-SPLINE
0 SG
GS
   864 32 TR
   [0.500 0.000 0.000 0.500 -432 0] CO
   864 NE 32 NE TR
GS
   NP
      864 32 M
      864 288 L
   TGSM
   0.500 W
   S
GR
GR

% POLY/OPEN-SPLINE
0 SG
GS
   928 32 TR
   [0.500 0.000 0.000 0.500 -464 0] CO
   928 NE 32 NE TR
GS
   NP
      928 32 M
      928 288 L
   TGSM
   0.500 W
   S
GR
GR

% POLY/OPEN-SPLINE
0 SG
GS
   944 32 TR
   [0.500 0.000 0.000 0.500 -472 0] CO
   944 NE 32 NE TR
GS
   NP
      944 32 M
      944 288 L
   TGSM
   0.500 W
   S
GR
GR

% POLY/OPEN-SPLINE
0 SG
GS
   987 -24 TR
   [0.000 0.500 -0.500 0.000 -507 64] CO
   987 NE -24 NE TR
GS
   NP
      987 -24 M
      987 232 L
   TGSM
   0.500 W
   S
GR
GR

% POLY/OPEN-SPLINE
0 SG
GS
   987 -16 TR
   [0.000 0.500 -0.500 0.000 -507 64] CO
   987 NE -16 NE TR
GS
   NP
      987 -16 M
      987 240 L
   TGSM
   0.500 W
   S
GR
GR

% POLY/OPEN-SPLINE
0 SG
GS
   987 -8 TR
   [0.000 0.500 -0.500 0.000 -507 64] CO
   987 NE -8 NE TR
GS
   NP
      987 -8 M
      987 248 L
   TGSM
   0.500 W
   S
GR
GR

% POLY/OPEN-SPLINE
0 SG
GS
   987 8 TR
   [0.000 0.500 -0.500 0.000 -507 64] CO
   987 NE 8 NE TR
GS
   NP
      987 8 M
      987 264 L
   TGSM
   0.500 W
   S
GR
GR

% POLY/OPEN-SPLINE
0 SG
GS
   987 24 TR
   [0.000 0.500 -0.500 0.000 -507 64] CO
   987 NE 24 NE TR
GS
   NP
      987 24 M
      987 280 L
   TGSM
   0.500 W
   S
GR
GR

% POLY/OPEN-SPLINE
0 SG
GS
   987 40 TR
   [0.000 0.500 -0.500 0.000 -507 64] CO
   987 NE 40 NE TR
GS
   NP
      987 40 M
      987 296 L
   TGSM
   0.500 W
   S
GR
GR

% POLY/OPEN-SPLINE
0 SG
GS
   987 64 TR
   [0.000 0.500 -0.500 0.000 -507 64] CO
   987 NE 64 NE TR
GS
   NP
      987 64 M
      987 320 L
   TGSM
   0.500 W
   S
GR
GR

% TEXT
NP
0 SG
GS
   96 170 TR
   [1.000 0.000 0.000 1.000 0 0] CO
   96 NE 170 NE TR
GR
   GS
      1 W
      96 170 TR
      [1.000 0.000 0.000 1.000 0 0] CO
      0 14 M
      GS
        GS
        0
            /Helvetica FF [14 0 0 -14 0 0] MS
            (Cartesian grid) TGSW 
        AD
        GR
      2 DI NE 0 RM
            0 SG
            /Helvetica FF [14 0 0 -14 0 0] MS
            (Cartesian grid) SH
      GR
   GR

% TEXT
NP
0 SG
GS
   256 170 TR
   [1.000 0.000 0.000 1.000 0 0] CO
   256 NE 170 NE TR
GR
   GS
      1 W
      256 170 TR
      [1.000 0.000 0.000 1.000 0 0] CO
      0 14 M
      GS
        GS
        0
            /Helvetica FF [14 0 0 -14 0 0] MS
            (regular grid) TGSW 
        AD
        GR
      2 DI NE 0 RM
            0 SG
            /Helvetica FF [14 0 0 -14 0 0] MS
            (regular grid) SH
      GR
   GR

% TEXT
NP
0 SG
GS
   416 170 TR
   [1.000 0.000 0.000 1.000 0 0] CO
   416 NE 170 NE TR
GR
   GS
      1 W
      416 170 TR
      [1.000 0.000 0.000 1.000 0 0] CO
      0 14 M
      GS
        GS
        0
            /Helvetica FF [14 0 0 -14 0 0] MS
            (rectilinear grid) TGSW 
        AD
        GR
      2 DI NE 0 RM
            0 SG
            /Helvetica FF [14 0 0 -14 0 0] MS
            (rectilinear grid) SH
      GR
   GR

% BOX
GS
   384 32 TR
   [0.500 0.000 0.000 0.500 -192 0] CO
   384 NE 32 NE TR
0 SG
GS
   10 SM
   GS
      NP 384 32 M 640 32 L 640 288 L 384 288 L CP
      TGSM
      S
   GR
GR
GR

% BOX
GS
   704 32 TR
   [0.500 0.000 0.000 0.500 -352 0] CO
   704 NE 32 NE TR
0 SG
GS
   10 SM
   GS
      NP 704 32 M 960 32 L 960 288 L 704 288 L CP
      TGSM
      S
   GR
GR
GR

% BOX
GS
   64 32 TR
   [0.500 0.000 0.000 0.500 -32 0] CO
   64 NE 32 NE TR
0 SG
GS
   10 SM
   GS
      NP 64 32 M 320 32 L 320 288 L 64 288 L CP
      TGSM
      S
   GR
GR
GR

GR
tgifsavedpage restore
end
showpage

%%Trailer
%MatchingCreationDate: Tue Apr 12 07:05:08 2005
%%DocumentFonts: Helvetica
%%EOF
